…
  else if (class(vector) == "character") {
  #### fill in missing values with "virginica" 
    coalesce(vector,"virginica")
  }
  else 
 stop("Input shall be either numeric or character vector")
}

##Do everything across column and merge the output into dataset.
iris_without_missing<-map_df(iris_with_missing,fill_NA)

iris_without_missing
```

    ## # A tibble: 150 x 5
    ##    Sepal.Length Sepal.Width Petal.Length Petal.Width Species
    ##           <dbl>       <dbl>        <dbl>       <dbl> <chr>  
    ##  1          5.1         3.5          1.4         0.2 setosa 
    ##  2          4.9         3            1.4         0.2 setosa 
    ##  3          4.7         3.2          1.3         0.2 setosa 
    ##  4          4.6         3.1          1.5         1.2 setosa 
    ##  5          5           3.6          1.4         0.2 setosa 
    ##  6          5.4         3.9          1.7         0.4 setosa 
    ##  7          5.8         3.4          1.4         0.3 setosa 
    ##  8          5           3.4          1.5         0.2 setosa 
    ##  9          4.4         2.9          1.4         0.2 setosa 
    ## 10          4.9         3.1          3.8         0.1 setosa 
    ## # … with 140 more rows
…
